<svg width="32" height="32" viewBox="0 0 32 32" fill="none" xmlns="http://www.w3.org/2000/svg">
<path d="M16 29.3333C8.63954 29.3252 2.67474 23.3604 2.66666 16V15.7333C2.81323 8.40604 8.84611 2.57061 16.1742 2.66784C23.5023 2.76507 29.3783 8.75851 29.3304 16.0871C29.2825 23.4157 23.3287 29.3319 16 29.3333ZM9.33332 14.6667V17.3333H14.6667V22.6667H17.3333V17.3333H22.6667V14.6667H17.3333V9.33333H14.6667V14.6667H9.33332Z" fill="#244BD6"/>
</svg>
